Summary of DCF diadroumus species data for DIASPARA WP 2.1
…
Show code

diadrom.DCF.23 %>%
  rename(ach.n.unit = `Achieved number of units`,
         #Diad.var = `Diadromous variable`,
         life.stage = `Life stage`,
         #unit = Unit,
         country = MS,
         year =`Implementation year`) %>%
  distinct(life.stage,Species)

rename: renamed 4 variables (country, year, life.stage, ach.n.unit)
distinct: removed 3,400 rows (99%), 40 rows remaining

# A tibble: 40 × 2
   life.stage                                                            Species
   <chr>                                                                 <chr>  
 1 Yellow eel                                                            Anguil…
 2 Glass eel                                                             Anguil…
 3 yellow eel and silver eel other diadromous species (amongst others r… Anguil…
 4 juveniles and adults                                                  Salmo …
 5 <NA>                                                                  Salmo …
 6 NA                                                                    Salmo …
 7 NA                                                                    Salmo …
 8 Silver eel                                                            Anguil…
 9 silver eel                                                            Anguil…
10 NA                                                                    Anguil…
# ℹ 30 more rows
…
